EESchema Schematic File Version 4
EELAYER 30 0
EELAYER END
$Descr A4 11693 8268
encoding utf-8
Sheet 1 1
Title ""
Date ""
Rev ""
Comp ""
Comment1 ""
Comment2 ""
Comment3 ""
Comment4 ""
$EndDescr
$Comp
L Diode_Bridge:ABS10 D4
U 1 1 5D4B0DB0
P 9400 3700
F 0 "D4" V 9600 3450 50  0000 R CNN
F 1 "ABS10" V 9500 3450 50  0000 R CNN
F 2 "Diode_SMD:Diode_Bridge_Diotec_ABS" H 9550 3825 50  0001 L CNN
F 3 "https://diotec.com/tl_files/diotec/files/pdf/datasheets/abs2.pdf" H 9400 3700 50  0001 C CNN
F 4 "3127182" V 9400 3700 50  0001 C CNN "Farnell"
F 5 "C65028" V 9400 3700 50  0001 C CNN "LCSC"
	1    9400 3700
	0    -1   -1   0   
$EndComp
Wire Wire Line
	10500 3450 10100 3450
Wire Wire Line
	10500 3350 9000 3350
Wire Wire Line
	9000 3350 9000 3700
Wire Wire Line
	9000 3700 9100 3700
Wire Wire Line
	9400 4000 9400 4150
$Comp
L Comparator:LM2903 U3
U 1 1 5D4B89F8
P 7500 2400
F 0 "U3" H 7500 2767 50  0000 C CNN
F 1 "LM2903DT" H 7500 2676 50  0000 C CNN
F 2 "Package_SO:SOIC-8_3.9x4.9mm_P1.27mm" H 7500 2400 50  0001 C CNN
F 3 "http://www.ti.com/lit/ds/symlink/lm393-n.pdf" H 7500 2400 50  0001 C CNN
F 4 "2382615" H 7500 2400 50  0001 C CNN "Farnell"
F 5 "C98194" H 7500 2400 50  0001 C CNN "LCSC"
	1    7500 2400
	-1   0    0    -1  
$EndComp
$Comp
L Comparator:LM2903 U3
U 2 1 5D4B9E10
P 6500 2300
F 0 "U3" H 6500 2667 50  0000 C CNN
F 1 "LM2903DT" H 6500 2576 50  0000 C CNN
F 2 "Package_SO:SOIC-8_3.9x4.9mm_P1.27mm" H 6500 2300 50  0001 C CNN
F 3 "http://www.ti.com/lit/ds/symlink/lm393-n.pdf" H 6500 2300 50  0001 C CNN
	2    6500 2300
	-1   0    0    -1  
$EndComp
$Comp
L Comparator:LM2903 U3
U 3 1 5D4BA5F3
P 10450 2000
F 0 "U3" H 10408 2046 50  0000 L CNN
F 1 "LM2903DT" H 10408 1955 50  0000 L CNN
F 2 "Package_SO:SOIC-8_3.9x4.9mm_P1.27mm" H 10450 2000 50  0001 C CNN
F 3 "http://www.ti.com/lit/ds/symlink/lm393-n.pdf" H 10450 2000 50  0001 C CNN
	3    10450 2000
	1    0    0    -1  
$EndComp
$Comp
L Device:R_Small R14
U 1 1 5D4BC628
P 8150 2700
F 0 "R14" H 8209 2746 50  0000 L CNN
F 1 "22k" H 8209 2655 50  0000 L CNN
F 2 "Resistor_SMD:R_0805_2012Metric" H 8150 2700 50  0001 C CNN
F 3 "~" H 8150 2700 50  0001 C CNN
F 4 "C17560" H 8150 2700 50  0001 C CNN "LCSC"
	1    8150 2700
	1    0    0    -1  
$EndComp
$Comp
L Device:R_Small R12
U 1 1 5D4C8943
P 7900 2700
F 0 "R12" H 7959 2746 50  0000 L CNN
F 1 "15k" H 7959 2655 50  0000 L CNN
F 2 "Resistor_SMD:R_0805_2012Metric" H 7900 2700 50  0001 C CNN
F 3 "~" H 7900 2700 50  0001 C CNN
F 4 "C17475" H 7900 2700 50  0001 C CNN "LCSC"
	1    7900 2700
	1    0    0    -1  
$EndComp
$Comp
L Device:R_Small R11
U 1 1 5D4C8B84
P 7900 1550
F 0 "R11" H 7959 1596 50  0000 L CNN
F 1 "18k" H 7959 1505 50  0000 L CNN
F 2 "Resistor_SMD:R_0805_2012Metric" H 7900 1550 50  0001 C CNN
F 3 "~" H 7900 1550 50  0001 C CNN
F 4 "C17506" H 7900 1550 50  0001 C CNN "LCSC"
	1    7900 1550
	1    0    0    -1  
$EndComp
$Comp
L Device:R_Small R13
U 1 1 5D4C8EDF
P 8150 2300
F 0 "R13" H 8209 2346 50  0000 L CNN
F 1 "100k" H 8209 2255 50  0000 L CNN
F 2 "Resistor_SMD:R_0805_2012Metric" H 8150 2300 50  0001 C CNN
F 3 "~" H 8150 2300 50  0001 C CNN
F 4 "C17407" H 8150 2300 50  0001 C CNN "LCSC"
	1    8150 2300
	1    0    0    -1  
$EndComp
$Comp
L Device:R_Small R10
U 1 1 5D4C977A
P 7500 1750
F 0 "R10" V 7304 1750 50  0000 C CNN
F 1 "220k" V 7395 1750 50  0000 C CNN
F 2 "Resistor_SMD:R_0805_2012Metric" H 7500 1750 50  0001 C CNN
F 3 "~" H 7500 1750 50  0001 C CNN
F 4 "C17556" V 7500 1750 50  0001 C CNN "LCSC"
	1    7500 1750
	0    1    1    0   
$EndComp
$Comp
L Device:R_Small R9
U 1 1 5D4CA98C
P 7100 1550
F 0 "R9" H 7159 1596 50  0000 L CNN
F 1 "10k" H 7159 1505 50  0000 L CNN
F 2 "Resistor_SMD:R_0805_2012Metric" H 7100 1550 50  0001 C CNN
F 3 "~" H 7100 1550 50  0001 C CNN
F 4 "C17414" H 7100 1550 50  0001 C CNN "LCSC"
	1    7100 1550
	1    0    0    -1  
$EndComp
$Comp
L Device:R_Small R5
U 1 1 5D4CE1E5
P 5700 1950
F 0 "R5" H 5759 1996 50  0000 L CNN
F 1 "2.2k" H 5759 1905 50  0000 L CNN
F 2 "Resistor_SMD:R_0805_2012Metric" H 5700 1950 50  0001 C CNN
F 3 "~" H 5700 1950 50  0001 C CNN
F 4 "C17520" H 5700 1950 50  0001 C CNN "LCSC"
	1    5700 1950
	1    0    0    -1  
$EndComp
$Comp
L power:0V #PWR011
U 1 1 5D4E375F
P 9400 4150
F 0 "#PWR011" H 9400 3900 50  0001 C CNN
F 1 "0V" H 9405 3977 50  0000 C CNN
F 2 "" H 9400 4150 50  0001 C CNN
F 3 "" H 9400 4150 50  0001 C CNN
	1    9400 4150
	1    0    0    -1  
$EndComp
$Comp
L power:0V #PWR07
U 1 1 5D4E532A
P 8150 2850
F 0 "#PWR07" H 8150 2600 50  0001 C CNN
F 1 "0V" H 8155 2677 50  0000 C CNN
F 2 "" H 8150 2850 50  0001 C CNN
F 3 "" H 8150 2850 50  0001 C CNN
	1    8150 2850
	1    0    0    -1  
$EndComp
$Comp
L power:0V #PWR06
U 1 1 5D4E56A0
P 7900 2850
F 0 "#PWR06" H 7900 2600 50  0001 C CNN
F 1 "0V" H 7905 2677 50  0000 C CNN
F 2 "" H 7900 2850 50  0001 C CNN
F 3 "" H 7900 2850 50  0001 C CNN
	1    7900 2850
	1    0    0    -1  
$EndComp
Wire Wire Line
	8150 2800 8150 2850
Wire Wire Line
	7800 2500 8150 2500
Wire Wire Line
	8150 2500 8150 2600
Wire Wire Line
	8150 2400 8150 2500
Connection ~ 8150 2500
Wire Wire Line
	7800 2300 7900 2300
Wire Wire Line
	7900 2300 7900 2600
Connection ~ 7900 2300
Wire Wire Line
	7900 1650 7900 1750
Wire Wire Line
	7600 1750 7900 1750
Connection ~ 7900 1750
Wire Wire Line
	7100 1400 7100 1450
Wire Wire Line
	7100 1750 7400 1750
Connection ~ 7100 1750
Wire Wire Line
	7100 2400 7200 2400
Wire Wire Line
	6800 2200 6950 2200
Wire Wire Line
	6800 2400 7100 2400
Connection ~ 7100 2400
Wire Wire Line
	6200 2300 5550 2300
Wire Notes Line
	5250 1150 5250 4400
Wire Notes Line
	11100 4400 11100 1150
Text Notes 5350 1350 0    118  ~ 0
Isolated
Wire Wire Line
	9700 3700 10100 3700
Wire Wire Line
	10100 3700 10100 3450
$Comp
L power:+5V #PWR01
U 1 1 5D517CAB
P 5700 1750
F 0 "#PWR01" H 5700 1600 50  0001 C CNN
F 1 "+5V" H 5715 1923 50  0000 C CNN
F 2 "" H 5700 1750 50  0001 C CNN
F 3 "" H 5700 1750 50  0001 C CNN
	1    5700 1750
	1    0    0    -1  
$EndComp
Wire Wire Line
	5700 1750 5700 1850
Wire Wire Line
	5700 2050 5700 2100
Wire Wire Line
	5700 2100 5550 2100
$Comp
L power:+5V #PWR016
U 1 1 5D51FA52
P 10350 1650
F 0 "#PWR016" H 10350 1500 50  0001 C CNN
F 1 "+5V" H 10365 1823 50  0000 C CNN
F 2 "" H 10350 1650 50  0001 C CNN
F 3 "" H 10350 1650 50  0001 C CNN
	1    10350 1650
	1    0    0    -1  
$EndComp
$Comp
L power:0V #PWR017
U 1 1 5D5200EE
P 10350 2350
F 0 "#PWR017" H 10350 2100 50  0001 C CNN
F 1 "0V" H 10355 2177 50  0000 C CNN
F 2 "" H 10350 2350 50  0001 C CNN
F 3 "" H 10350 2350 50  0001 C CNN
	1    10350 2350
	1    0    0    -1  
$EndComp
Wire Wire Line
	10350 2300 10350 2350
Wire Wire Line
	10350 1650 10350 1700
$Comp
L Regulator_Linear:LP2951-5.0_SOIC U4
U 1 1 5D5411E3
P 9200 1800
F 0 "U4" H 9200 2367 50  0000 C CNN
F 1 "LP2951-50DR" H 9200 2276 50  0000 C CNN
F 2 "Package_SO:SOIC-8_3.9x4.9mm_P1.27mm" H 9200 1150 50  0001 C CNN
F 3 "http://www.ti.com/lit/ds/symlink/lp2951-n.pdf" H 9200 1800 50  0001 C CNN
F 4 "1755065" H 9200 1800 50  0001 C CNN "Farnell"
F 5 "C109380" H 9200 1800 50  0001 C CNN "LCSC"
	1    9200 1800
	1    0    0    -1  
$EndComp
Wire Wire Line
	9400 3400 9400 3100
Wire Wire Line
	9400 3100 8500 3100
Wire Wire Line
	8500 3100 8500 2150
Wire Wire Line
	8500 2150 8150 2150
Wire Wire Line
	8150 2150 8150 2200
$Comp
L power:0V #PWR010
U 1 1 5D568DE3
P 9200 2300
F 0 "#PWR010" H 9200 2050 50  0001 C CNN
F 1 "0V" H 9205 2127 50  0000 C CNN
F 2 "" H 9200 2300 50  0001 C CNN
F 3 "" H 9200 2300 50  0001 C CNN
	1    9200 2300
	1    0    0    -1  
$EndComp
NoConn ~ 9600 1800
Wire Wire Line
	9600 1900 9700 1900
Wire Wire Line
	9700 1900 9700 2000
Wire Wire Line
	9700 2000 9600 2000
Wire Wire Line
	9600 1500 9700 1500
Wire Wire Line
	9700 1500 9700 1600
Wire Wire Line
	9700 1600 9600 1600
$Comp
L power:0V #PWR09
U 1 1 5D56B812
P 8800 1800
F 0 "#PWR09" H 8800 1550 50  0001 C CNN
F 1 "0V" H 8805 1627 50  0000 C CNN
F 2 "" H 8800 1800 50  0001 C CNN
F 3 "" H 8800 1800 50  0001 C CNN
	1    8800 1800
	1    0    0    -1  
$EndComp
Wire Wire Line
	8800 1700 8800 1800
Wire Wire Line
	8500 1500 8500 1600
Wire Wire Line
	8500 1500 8600 1500
$Comp
L Device:C_Small C1
U 1 1 5D575856
P 8600 1600
F 0 "C1" H 8692 1646 50  0000 L CNN
F 1 "1u" H 8692 1555 50  0000 L CNN
F 2 "Capacitor_SMD:C_0805_2012Metric" H 8600 1600 50  0001 C CNN
F 3 "~" H 8600 1600 50  0001 C CNN
F 4 "C28323" H 8600 1600 50  0001 C CNN "LCSC"
	1    8600 1600
	1    0    0    -1  
$EndComp
Connection ~ 8600 1500
Wire Wire Line
	8600 1500 8800 1500
$Comp
L power:0V #PWR08
U 1 1 5D578EB0
P 8600 1700
F 0 "#PWR08" H 8600 1450 50  0001 C CNN
F 1 "0V" H 8605 1527 50  0000 C CNN
F 2 "" H 8600 1700 50  0001 C CNN
F 3 "" H 8600 1700 50  0001 C CNN
	1    8600 1700
	1    0    0    -1  
$EndComp
$Comp
L Device:C_Small C2
U 1 1 5D57913F
P 9850 1650
F 0 "C2" H 9942 1696 50  0000 L CNN
F 1 "1u" H 9942 1605 50  0000 L CNN
F 2 "Capacitor_SMD:C_0805_2012Metric" H 9850 1650 50  0001 C CNN
F 3 "~" H 9850 1650 50  0001 C CNN
F 4 "C28323" H 9850 1650 50  0001 C CNN "LCSC"
	1    9850 1650
	1    0    0    -1  
$EndComp
$Comp
L power:0V #PWR013
U 1 1 5D579650
P 9850 1750
F 0 "#PWR013" H 9850 1500 50  0001 C CNN
F 1 "0V" H 9855 1577 50  0000 C CNN
F 2 "" H 9850 1750 50  0001 C CNN
F 3 "" H 9850 1750 50  0001 C CNN
	1    9850 1750
	1    0    0    -1  
$EndComp
Wire Wire Line
	9700 1500 9850 1500
Connection ~ 9700 1500
$Comp
L power:+5V #PWR012
U 1 1 5D57BB11
P 9850 1450
F 0 "#PWR012" H 9850 1300 50  0001 C CNN
F 1 "+5V" H 9865 1623 50  0000 C CNN
F 2 "" H 9850 1450 50  0001 C CNN
F 3 "" H 9850 1450 50  0001 C CNN
	1    9850 1450
	1    0    0    -1  
$EndComp
Wire Wire Line
	9850 1450 9850 1500
Connection ~ 9850 1500
Wire Wire Line
	9850 1500 9850 1550
$Comp
L Device:LED_Small D2
U 1 1 5D580843
P 5800 3050
F 0 "D2" H 5800 3285 50  0000 C CNN
F 1 "TX red" H 5800 3194 50  0000 C CNN
F 2 "LED_SMD:LED_0805_2012Metric" V 5800 3050 50  0001 C CNN
F 3 "~" V 5800 3050 50  0001 C CNN
F 4 "C84256" H 5800 3050 50  0001 C CNN "LCSC"
	1    5800 3050
	1    0    0    -1  
$EndComp
$Comp
L Device:R_Small R7
U 1 1 5D581470
P 6100 2900
F 0 "R7" H 6159 2946 50  0000 L CNN
F 1 "470" H 6159 2855 50  0000 L CNN
F 2 "Resistor_SMD:R_0805_2012Metric" H 6100 2900 50  0001 C CNN
F 3 "~" H 6100 2900 50  0001 C CNN
F 4 "C17710" H 6100 2900 50  0001 C CNN "LCSC"
	1    6100 2900
	1    0    0    -1  
$EndComp
$Comp
L power:+5V #PWR02
U 1 1 5D584242
P 6100 2750
F 0 "#PWR02" H 6100 2600 50  0001 C CNN
F 1 "+5V" H 6115 2923 50  0000 C CNN
F 2 "" H 6100 2750 50  0001 C CNN
F 3 "" H 6100 2750 50  0001 C CNN
	1    6100 2750
	1    0    0    -1  
$EndComp
Wire Wire Line
	6100 2750 6100 2800
Wire Wire Line
	6100 3000 6100 3050
Wire Wire Line
	6100 3050 5900 3050
Wire Wire Line
	5700 3050 5500 3050
$Comp
L Transistor_BJT:BC817 Q1
U 1 1 5D595BF2
P 6400 3500
F 0 "Q1" H 6590 3546 50  0000 L CNN
F 1 "BC817-40" H 6590 3455 50  0000 L CNN
F 2 "Package_TO_SOT_SMD:SOT-23" H 6600 3425 50  0001 L CIN
F 3 "http://www.fairchildsemi.com/ds/BC/BC817.pdf" H 6400 3500 50  0001 L CNN
F 4 "1798081" H 6400 3500 50  0001 C CNN "Farnell"
F 5 "C181151" H 6400 3500 50  0001 C CNN "LCSC"
	1    6400 3500
	1    0    0    -1  
$EndComp
Wire Wire Line
	5500 3250 6100 3250
Wire Wire Line
	6100 3250 6100 3500
Wire Wire Line
	6100 3500 6200 3500
Wire Wire Line
	6100 3500 6100 3650
Connection ~ 6100 3500
$Comp
L power:0V #PWR03
U 1 1 5D5A4924
P 6100 3900
F 0 "#PWR03" H 6100 3650 50  0001 C CNN
F 1 "0V" H 6105 3727 50  0000 C CNN
F 2 "" H 6100 3900 50  0001 C CNN
F 3 "" H 6100 3900 50  0001 C CNN
	1    6100 3900
	1    0    0    -1  
$EndComp
Wire Wire Line
	6500 3700 6500 3900
Wire Wire Line
	6100 3850 6100 3900
$Comp
L Diode:Z1SMAxxx D3
U 1 1 5D5ACB76
P 7000 3100
F 0 "D3" H 7000 2884 50  0000 C CNN
F 1 "1SMB5924BY3G" H 7000 2975 50  0000 C CNN
F 2 "Diode_SMD:D_SMA" H 7000 2925 50  0001 C CNN
F 3 "https://diotec.com/tl_files/diotec/files/pdf/datasheets/z1sma1.pdf" H 7000 3100 50  0001 C CNN
F 4 "1611267" H 7000 3100 50  0001 C CNN "Farnell"
F 5 "C53166" H 7000 3100 50  0001 C CNN "LCSC"
	1    7000 3100
	-1   0    0    1   
$EndComp
Wire Wire Line
	6850 3100 6500 3100
Wire Wire Line
	6500 3100 6500 3300
Wire Wire Line
	7150 3100 8500 3100
Connection ~ 8500 3100
$Comp
L Device:LED_Small D1
U 1 1 5D5C3EC5
P 4650 1850
F 0 "D1" V 4750 1700 50  0000 C CNN
F 1 "RX green" V 4650 1600 50  0000 C CNN
F 2 "LED_SMD:LED_0805_2012Metric" V 4650 1850 50  0001 C CNN
F 3 "~" V 4650 1850 50  0001 C CNN
F 4 "C2297" V 4650 1850 50  0001 C CNN "LCSC"
	1    4650 1850
	0    -1   -1   0   
$EndComp
$Comp
L Device:R_Small R1
U 1 1 5D5C4754
P 4050 1550
F 0 "R1" H 4109 1596 50  0000 L CNN
F 1 "DNF" H 4109 1505 50  0000 L CNN
F 2 "Resistor_SMD:R_0805_2012Metric" H 4050 1550 50  0001 C CNN
F 3 "~" H 4050 1550 50  0001 C CNN
	1    4050 1550
	1    0    0    -1  
$EndComp
$Comp
L Device:R_Small R4
U 1 1 5D605118
P 4700 2850
F 0 "R4" H 4759 2896 50  0000 L CNN
F 1 "470" H 4759 2805 50  0000 L CNN
F 2 "Resistor_SMD:R_0805_2012Metric" H 4700 2850 50  0001 C CNN
F 3 "~" H 4700 2850 50  0001 C CNN
F 4 "C17710" H 4700 2850 50  0001 C CNN "LCSC"
	1    4700 2850
	1    0    0    -1  
$EndComp
Wire Wire Line
	4700 2950 4700 3050
Wire Wire Line
	4700 3050 4900 3050
Wire Wire Line
	4900 3250 4550 3250
$Comp
L Device:R_Small R8
U 1 1 5D6499C1
P 6250 3750
F 0 "R8" H 6309 3796 50  0000 L CNN
F 1 "470" H 6309 3705 50  0000 L CNN
F 2 "Resistor_SMD:R_0805_2012Metric" H 6250 3750 50  0001 C CNN
F 3 "~" H 6250 3750 50  0001 C CNN
F 4 "C17710" H 6250 3750 50  0001 C CNN "LCSC"
	1    6250 3750
	1    0    0    -1  
$EndComp
$Comp
L Device:R_Small R6
U 1 1 5D649F8E
P 5950 3750
F 0 "R6" H 6009 3796 50  0000 L CNN
F 1 "470" H 6009 3705 50  0000 L CNN
F 2 "Resistor_SMD:R_0805_2012Metric" H 5950 3750 50  0001 C CNN
F 3 "~" H 5950 3750 50  0001 C CNN
F 4 "C17710" H 5950 3750 50  0001 C CNN "LCSC"
	1    5950 3750
	1    0    0    -1  
$EndComp
Wire Wire Line
	6100 3650 5950 3650
Wire Wire Line
	6100 3650 6250 3650
Connection ~ 6100 3650
Wire Wire Line
	5950 3850 6100 3850
Wire Wire Line
	6100 3850 6250 3850
Connection ~ 6100 3850
Wire Wire Line
	4350 1350 4350 1450
Wire Wire Line
	4650 1350 4650 1450
Wire Wire Line
	4650 1650 4650 1750
Wire Wire Line
	4350 2100 4650 2100
Wire Wire Line
	4650 1950 4650 2100
$Comp
L Device:C_Small C3
U 1 1 5D6843DB
P 10800 2000
F 0 "C3" H 10892 2046 50  0000 L CNN
F 1 "100n" H 10892 1955 50  0000 L CNN
F 2 "Capacitor_SMD:C_0805_2012Metric" H 10800 2000 50  0001 C CNN
F 3 "~" H 10800 2000 50  0001 C CNN
F 4 "C49678" H 10800 2000 50  0001 C CNN "LCSC"
	1    10800 2000
	1    0    0    -1  
$EndComp
$Comp
L power:+5V #PWR018
U 1 1 5D68511A
P 10800 1650
F 0 "#PWR018" H 10800 1500 50  0001 C CNN
F 1 "+5V" H 10815 1823 50  0000 C CNN
F 2 "" H 10800 1650 50  0001 C CNN
F 3 "" H 10800 1650 50  0001 C CNN
	1    10800 1650
	1    0    0    -1  
$EndComp
$Comp
L power:0V #PWR019
U 1 1 5D685636
P 10800 2350
F 0 "#PWR019" H 10800 2100 50  0001 C CNN
F 1 "0V" H 10805 2177 50  0000 C CNN
F 2 "" H 10800 2350 50  0001 C CNN
F 3 "" H 10800 2350 50  0001 C CNN
	1    10800 2350
	1    0    0    -1  
$EndComp
Wire Wire Line
	10800 1650 10800 1900
Wire Wire Line
	10800 2100 10800 2350
Wire Notes Line
	5250 4400 11100 4400
Wire Notes Line
	5250 1150 11100 1150
Wire Wire Line
	7900 2800 7900 2850
$Comp
L Device:LED_Small D5
U 1 1 5D70F3B0
P 9850 2350
F 0 "D5" H 9850 2585 50  0000 C CNN
F 1 "power yellow" H 9850 2494 50  0000 C CNN
F 2 "LED_SMD:LED_0805_2012Metric" V 9850 2350 50  0001 C CNN
F 3 "~" V 9850 2350 50  0001 C CNN
F 4 "C2296" H 9850 2350 50  0001 C CNN "LCSC"
	1    9850 2350
	0    -1   -1   0   
$EndComp
$Comp
L Device:R_Small R15
U 1 1 5D715950
P 9850 2650
F 0 "R15" H 9909 2696 50  0000 L CNN
F 1 "10k" H 9909 2605 50  0000 L CNN
F 2 "Resistor_SMD:R_0805_2012Metric" H 9850 2650 50  0001 C CNN
F 3 "~" H 9850 2650 50  0001 C CNN
F 4 "C17414" H 9850 2650 50  0001 C CNN "LCSC"
	1    9850 2650
	1    0    0    -1  
$EndComp
$Comp
L power:+5V #PWR014
U 1 1 5D7171E9
P 9850 2150
F 0 "#PWR014" H 9850 2000 50  0001 C CNN
F 1 "+5V" H 9865 2323 50  0000 C CNN
F 2 "" H 9850 2150 50  0001 C CNN
F 3 "" H 9850 2150 50  0001 C CNN
	1    9850 2150
	1    0    0    -1  
$EndComp
Wire Wire Line
	9850 2150 9850 2250
Wire Wire Line
	9850 2450 9850 2550
$Comp
L power:0V #PWR015
U 1 1 5D71EBCE
P 9850 2850
F 0 "#PWR015" H 9850 2600 50  0001 C CNN
F 1 "0V" H 9855 2677 50  0000 C CNN
F 2 "" H 9850 2850 50  0001 C CNN
F 3 "" H 9850 2850 50  0001 C CNN
	1    9850 2850
	1    0    0    -1  
$EndComp
Wire Wire Line
	9850 2750 9850 2850
Text Label 8850 3100 0    50   ~ 0
ebus-signal
$Comp
L Connector_Generic:Conn_01x02 J4
U 1 1 5D69060D
P 10700 3450
F 0 "J4" H 10618 3125 50  0000 C CNN
F 1 "EBUS" H 10618 3216 50  0000 C CNN
F 2 "Connector_Phoenix_MC:PhoenixContact_MC_1,5_2-G-3.81_1x02_P3.81mm_Horizontal" H 10700 3450 50  0001 C CNN
F 3 "~" H 10700 3450 50  0001 C CNN
F 4 "C69811" H 10700 3450 50  0001 C CNN "LCSC"
	1    10700 3450
	1    0    0    1   
$EndComp
$Comp
L Device:R_Small R16
U 1 1 5D77CA1D
P 8500 1700
F 0 "R16" H 8559 1746 50  0000 L CNN
F 1 "120E" H 8559 1655 50  0000 L CNN
F 2 "Resistor_SMD:R_0805_2012Metric" H 8500 1700 50  0001 C CNN
F 3 "~" H 8500 1700 50  0001 C CNN
F 4 "C17437" H 8500 1700 50  0001 C CNN "LCSC"
	1    8500 1700
	-1   0    0    -1  
$EndComp
$Comp
L power:0V #PWR0101
U 1 1 5D521163
P 6500 3900
F 0 "#PWR0101" H 6500 3650 50  0001 C CNN
F 1 "0V" H 6505 3727 50  0000 C CNN
F 2 "" H 6500 3900 50  0001 C CNN
F 3 "" H 6500 3900 50  0001 C CNN
	1    6500 3900
	1    0    0    -1  
$EndComp
Wire Wire Line
	7900 1400 7900 1450
$Comp
L power:+5V #PWR04
U 1 1 5D5B09A3
P 7100 1400
F 0 "#PWR04" H 7100 1250 50  0001 C CNN
F 1 "+5V" H 7115 1573 50  0000 C CNN
F 2 "" H 7100 1400 50  0001 C CNN
F 3 "" H 7100 1400 50  0001 C CNN
	1    7100 1400
	1    0    0    -1  
$EndComp
Wire Wire Line
	6950 1900 6950 2200
Wire Wire Line
	7900 1900 7900 2300
Connection ~ 7900 1900
Wire Wire Line
	7900 1750 7900 1900
Wire Wire Line
	7900 1900 6950 1900
$Comp
L power:+5V #PWR05
U 1 1 5D516E86
P 7900 1400
F 0 "#PWR05" H 7900 1250 50  0001 C CNN
F 1 "+5V" H 7915 1573 50  0000 C CNN
F 2 "" H 7900 1400 50  0001 C CNN
F 3 "" H 7900 1400 50  0001 C CNN
	1    7900 1400
	1    0    0    -1  
$EndComp
Wire Wire Line
	7100 1650 7100 1750
Wire Wire Line
	7100 1750 7100 2400
$Comp
L Diode:1N4148WS D6
U 1 1 5DACF05D
P 8500 2000
F 0 "D6" V 8450 1550 50  0000 L CNN
F 1 "1N4148WS" V 8550 1550 50  0000 L CNN
F 2 "Diode_SMD:D_SOD-323" H 8500 1825 50  0001 C CNN
F 3 "https://www.vishay.com/docs/85751/1n4148ws.pdf" H 8500 2000 50  0001 C CNN
F 4 "2675148" V 8500 2000 50  0001 C CNN "Farnell"
F 5 "C57759" V 8500 2000 50  0001 C CNN "LCSC"
	1    8500 2000
	0    1    1    0   
$EndComp
Connection ~ 8500 2150
Wire Wire Line
	8500 1800 8500 1850
$Comp
L Interface_USB:CP2104 U5
U 1 1 5FAE521A
P 3200 2650
F 0 "U5" H 3450 1700 50  0000 C CNN
F 1 "CP2104" H 3550 1600 50  0000 C CNN
F 2 "Package_DFN_QFN:QFN-24-1EP_4x4mm_P0.5mm_EP2.6x2.6mm_ThermalVias" H 3350 1700 50  0001 L CNN
F 3 "https://www.silabs.com/documents/public/data-sheets/cp2104.pdf" H 2650 3900 50  0001 C CNN
F 4 "C47742" H 3200 2650 50  0001 C CNN "LCSC"
	1    3200 2650
	1    0    0    -1  
$EndComp
Wire Wire Line
	3200 3650 3200 3700
Wire Wire Line
	3200 3700 3250 3700
Wire Wire Line
	3250 3700 3250 3750
Wire Wire Line
	3300 3650 3300 3700
Wire Wire Line
	3300 3700 3250 3700
Connection ~ 3250 3700
$Comp
L Connector:USB_A J1
U 1 1 5FB0CF91
P 950 2450
F 0 "J1" H 1007 2917 50  0000 C CNN
F 1 "USB_A" H 1007 2826 50  0000 C CNN
F 2 "ebuzzz-adapter:XKB_Connectivity_U217-041N-4BV81" H 1100 2400 50  0001 C CNN
F 3 " ~" H 1100 2400 50  0001 C CNN
F 4 "C319178" H 950 2450 50  0001 C CNN "LCSC"
	1    950  2450
	1    0    0    -1  
$EndComp
Wire Wire Line
	850  2850 850  3000
Wire Wire Line
	950  2850 950  3000
Wire Wire Line
	3200 1500 3200 1600
Wire Wire Line
	3000 1750 3000 1600
Wire Wire Line
	3000 1600 3200 1600
Connection ~ 3200 1600
Wire Wire Line
	3200 1600 3200 1750
Wire Wire Line
	3400 1750 3400 1600
Wire Wire Line
	3400 1600 3200 1600
$Comp
L Device:C_Small C7
U 1 1 5FB38517
P 2400 3550
F 0 "C7" H 2492 3596 50  0000 L CNN
F 1 "DNF" H 2492 3505 50  0000 L CNN
F 2 "Capacitor_SMD:C_0805_2012Metric" H 2400 3550 50  0001 C CNN
F 3 "~" H 2400 3550 50  0001 C CNN
	1    2400 3550
	1    0    0    -1  
$EndComp
Wire Wire Line
	2500 3350 2400 3350
Wire Wire Line
	2400 3350 2400 3450
Wire Wire Line
	2400 3650 2400 3700
$Comp
L Device:C_Small C4
U 1 1 5FB44CB2
P 2100 3550
F 0 "C4" H 2192 3596 50  0000 L CNN
F 1 "1u" H 2192 3505 50  0000 L CNN
F 2 "Capacitor_SMD:C_0805_2012Metric" H 2100 3550 50  0001 C CNN
F 3 "~" H 2100 3550 50  0001 C CNN
F 4 "C28323" H 2100 3550 50  0001 C CNN "LCSC"
	1    2100 3550
	1    0    0    -1  
$EndComp
$Comp
L Device:C_Small C6
U 1 1 5FB47584
P 4650 4000
F 0 "C6" H 4742 4046 50  0000 L CNN
F 1 "4.7u" H 4742 3955 50  0000 L CNN
F 2 "Capacitor_SMD:C_0805_2012Metric" H 4650 4000 50  0001 C CNN
F 3 "~" H 4650 4000 50  0001 C CNN
F 4 "C1779" H 4650 4000 50  0001 C CNN "LCSC"
	1    4650 4000
	1    0    0    -1  
$EndComp
$Comp
L Device:C_Small C5
U 1 1 5FB48FAE
P 4950 4000
F 0 "C5" H 5042 4046 50  0000 L CNN
F 1 "100n" H 5042 3955 50  0000 L CNN
F 2 "Capacitor_SMD:C_0805_2012Metric" H 4950 4000 50  0001 C CNN
F 3 "~" H 4950 4000 50  0001 C CNN
F 4 "C49678" H 4950 4000 50  0001 C CNN "LCSC"
	1    4950 4000
	1    0    0    -1  
$EndComp
Wire Wire Line
	4650 3900 4650 3850
Wire Wire Line
	4650 3850 4800 3850
Wire Wire Line
	4800 3850 4800 3800
Wire Wire Line
	4800 3850 4950 3850
Wire Wire Line
	4950 3850 4950 3900
Connection ~ 4800 3850
Wire Wire Line
	4650 4100 4650 4150
Wire Wire Line
	4650 4150 4800 4150
Wire Wire Line
	4800 4150 4800 4200
Wire Wire Line
	4950 4100 4950 4150
Wire Wire Line
	4950 4150 4800 4150
Connection ~ 4800 4150
Wire Wire Line
	2100 2050 2500 2050
Wire Wire Line
	2100 3650 2100 3700
Wire Wire Line
	2100 3700 2250 3700
Wire Wire Line
	2250 3700 2250 3750
Wire Wire Line
	2400 3700 2250 3700
Connection ~ 2250 3700
Wire Wire Line
	4900 2300 4950 2300
$Comp
L Device:Fuse_Small F1
U 1 1 5FCB9468
P 1450 2250
F 0 "F1" H 1450 2435 50  0000 C CNN
F 1 "1A" H 1450 2344 50  0000 C CNN
F 2 "Fuse:Fuse_1206_3216Metric" H 1450 2250 50  0001 C CNN
F 3 "~" H 1450 2250 50  0001 C CNN
F 4 "C182308" H 1450 2250 50  0001 C CNN "LCSC"
	1    1450 2250
	1    0    0    -1  
$EndComp
$Comp
L Device:R_Small R3
U 1 1 5FCBEB98
P 4650 1550
F 0 "R3" H 4709 1596 50  0000 L CNN
F 1 "1k" H 4709 1505 50  0000 L CNN
F 2 "Resistor_SMD:R_0805_2012Metric" H 4650 1550 50  0001 C CNN
F 3 "~" H 4650 1550 50  0001 C CNN
F 4 "C17513" H 4650 1550 50  0001 C CNN "LCSC"
	1    4650 1550
	1    0    0    -1  
$EndComp
Wire Wire Line
	4350 1650 4350 2100
Wire Wire Line
	4350 1350 4350 1300
Connection ~ 4350 1350
Wire Wire Line
	4350 1350 4650 1350
Wire Wire Line
	4700 2750 4700 2700
Wire Wire Line
	1250 2550 1500 2550
Wire Wire Line
	900  3000 900  3050
Connection ~ 900  3000
Wire Wire Line
	950  3000 900  3000
Wire Wire Line
	850  3000 900  3000
Wire Wire Line
	1250 2450 1600 2450
Wire Wire Line
	1650 2450 1650 2650
Wire Wire Line
	1650 2650 2500 2650
Wire Wire Line
	3900 2550 4050 2550
Wire Wire Line
	4550 2550 4550 3250
Wire Wire Line
	3900 2650 4350 2650
Wire Wire Line
	4350 2650 4350 2100
Connection ~ 4350 2100
$Comp
L Power_Protection:SP0503BAHT D7
U 1 1 5FDDAE94
P 1600 2950
F 0 "D7" H 1805 2996 50  0000 L CNN
F 1 "TPSP0503BAHTG" H 1805 2905 50  0000 L CNN
F 2 "Package_TO_SOT_SMD:SOT-143" H 1825 2900 50  0001 L CNN
F 3 "http://www.littelfuse.com/~/media/files/littelfuse/technical%20resources/documents/data%20sheets/sp05xxba.pdf" H 1725 3075 50  0001 C CNN
F 4 "C2682275" H 1600 2950 50  0001 C CNN "LCSC"
	1    1600 2950
	1    0    0    -1  
$EndComp
Wire Wire Line
	1500 2750 1500 2550
Connection ~ 1500 2550
Wire Wire Line
	1500 2550 2500 2550
Wire Wire Line
	1600 2750 1600 2450
Connection ~ 1600 2450
Wire Wire Line
	1600 2450 1650 2450
Wire Wire Line
	1700 2750 1700 2250
Connection ~ 1700 2250
NoConn ~ 2500 3150
NoConn ~ 2500 3050
NoConn ~ 2500 2950
NoConn ~ 2500 2850
NoConn ~ 3900 2850
NoConn ~ 3900 2950
NoConn ~ 3900 3150
NoConn ~ 3900 3250
NoConn ~ 3900 3350
NoConn ~ 3900 2350
NoConn ~ 3900 2250
NoConn ~ 3900 2150
NoConn ~ 3900 2050
$Comp
L Device:R_Small R2
U 1 1 5FE54AF0
P 4350 1550
F 0 "R2" H 4409 1596 50  0000 L CNN
F 1 "DNF" H 4409 1505 50  0000 L CNN
F 2 "Resistor_SMD:R_0805_2012Metric" H 4350 1550 50  0001 C CNN
F 3 "~" H 4350 1550 50  0001 C CNN
	1    4350 1550
	1    0    0    -1  
$EndComp
Wire Wire Line
	4350 1350 4050 1350
Wire Wire Line
	4050 1350 4050 1450
Wire Wire Line
	4050 1650 4050 2550
Connection ~ 4050 2550
Wire Wire Line
	4050 2550 4550 2550
$Comp
L power:VBUS #PWR0112
U 1 1 5FE88505
P 2100 2000
F 0 "#PWR0112" H 2100 1850 50  0001 C CNN
F 1 "VBUS" H 2115 2173 50  0000 C CNN
F 2 "" H 2100 2000 50  0001 C CNN
F 3 "" H 2100 2000 50  0001 C CNN
	1    2100 2000
	1    0    0    -1  
$EndComp
Wire Wire Line
	2100 2250 2500 2250
Connection ~ 2100 2250
Wire Wire Line
	2100 2250 2100 3450
Wire Wire Line
	1250 2250 1350 2250
Wire Wire Line
	2100 2250 2100 2050
Wire Wire Line
	2100 2000 2100 2050
Connection ~ 2100 2050
$Comp
L Isolator:LTV-357T U1
U 1 1 5FEB3BDB
P 5200 3150
F 0 "U1" H 5200 3475 50  0000 C CNN
F 1 "LTV-357T" H 5200 3384 50  0000 C CNN
F 2 "Package_SO:SO-4_4.4x3.6mm_P2.54mm" H 5000 2950 50  0001 L CIN
F 3 "https://www.buerklin.com/medias/sys_master/download/download/h91/ha0/8892020588574.pdf" H 5200 3150 50  0001 L CNN
F 4 "C33068" H 5200 3150 50  0001 C CNN "LCSC"
	1    5200 3150
	1    0    0    -1  
$EndComp
$Comp
L Isolator:LTV-357T U2
U 1 1 5FECA158
P 5250 2200
F 0 "U2" H 5250 2525 50  0000 C CNN
F 1 "LTV-357T" H 5250 2434 50  0000 C CNN
F 2 "Package_SO:SO-4_4.4x3.6mm_P2.54mm" H 5050 2000 50  0001 L CIN
F 3 "https://www.buerklin.com/medias/sys_master/download/download/h91/ha0/8892020588574.pdf" H 5250 2200 50  0001 L CNN
F 4 "C33068" H 5250 2200 50  0001 C CNN "LCSC"
	1    5250 2200
	-1   0    0    -1  
$EndComp
$Comp
L power:GNDREF #PWR0102
U 1 1 5FF07ECE
P 2250 3750
F 0 "#PWR0102" H 2250 3500 50  0001 C CNN
F 1 "GNDREF" H 2255 3577 50  0000 C CNN
F 2 "" H 2250 3750 50  0001 C CNN
F 3 "" H 2250 3750 50  0001 C CNN
	1    2250 3750
	1    0    0    -1  
$EndComp
$Comp
L power:GNDREF #PWR0103
U 1 1 5FF08E51
P 3250 3750
F 0 "#PWR0103" H 3250 3500 50  0001 C CNN
F 1 "GNDREF" H 3255 3577 50  0000 C CNN
F 2 "" H 3250 3750 50  0001 C CNN
F 3 "" H 3250 3750 50  0001 C CNN
	1    3250 3750
	1    0    0    -1  
$EndComp
$Comp
L power:GNDREF #PWR0104
U 1 1 5FF0935F
P 4800 4200
F 0 "#PWR0104" H 4800 3950 50  0001 C CNN
F 1 "GNDREF" H 4805 4027 50  0000 C CNN
F 2 "" H 4800 4200 50  0001 C CNN
F 3 "" H 4800 4200 50  0001 C CNN
	1    4800 4200
	1    0    0    -1  
$EndComp
$Comp
L power:GNDREF #PWR0110
U 1 1 5FF0A247
P 1600 3150
F 0 "#PWR0110" H 1600 2900 50  0001 C CNN
F 1 "GNDREF" H 1605 2977 50  0000 C CNN
F 2 "" H 1600 3150 50  0001 C CNN
F 3 "" H 1600 3150 50  0001 C CNN
	1    1600 3150
	1    0    0    -1  
$EndComp
$Comp
L power:GNDREF #PWR0111
U 1 1 5FF0A877
P 900 3050
F 0 "#PWR0111" H 900 2800 50  0001 C CNN
F 1 "GNDREF" H 905 2877 50  0000 C CNN
F 2 "" H 900 3050 50  0001 C CNN
F 3 "" H 900 3050 50  0001 C CNN
	1    900  3050
	1    0    0    -1  
$EndComp
$Comp
L power:GNDREF #PWR0105
U 1 1 5FF0EDA7
P 4900 2300
F 0 "#PWR0105" H 4900 2050 50  0001 C CNN
F 1 "GNDREF" H 4905 2127 50  0000 C CNN
F 2 "" H 4900 2300 50  0001 C CNN
F 3 "" H 4900 2300 50  0001 C CNN
	1    4900 2300
	1    0    0    -1  
$EndComp
Text Label 4200 2550 0    50   ~ 0
TX
Text Label 4200 2650 0    50   ~ 0
RX
Text Label 2250 2550 0    50   ~ 0
D-
Text Label 2250 2650 0    50   ~ 0
D+
Connection ~ 4650 2100
Wire Wire Line
	4650 2100 4950 2100
$Comp
L power:VCC #PWR0106
U 1 1 5FF64F4E
P 3200 1500
F 0 "#PWR0106" H 3200 1350 50  0001 C CNN
F 1 "VCC" H 3217 1673 50  0000 C CNN
F 2 "" H 3200 1500 50  0001 C CNN
F 3 "" H 3200 1500 50  0001 C CNN
	1    3200 1500
	1    0    0    -1  
$EndComp
$Comp
L power:VCC #PWR0107
U 1 1 5FF6657D
P 4350 1300
F 0 "#PWR0107" H 4350 1150 50  0001 C CNN
F 1 "VCC" H 4367 1473 50  0000 C CNN
F 2 "" H 4350 1300 50  0001 C CNN
F 3 "" H 4350 1300 50  0001 C CNN
	1    4350 1300
	1    0    0    -1  
$EndComp
$Comp
L power:VCC #PWR0109
U 1 1 5FF668CC
P 4800 3800
F 0 "#PWR0109" H 4800 3650 50  0001 C CNN
F 1 "VCC" H 4817 3973 50  0000 C CNN
F 2 "" H 4800 3800 50  0001 C CNN
F 3 "" H 4800 3800 50  0001 C CNN
	1    4800 3800
	1    0    0    -1  
$EndComp
Wire Wire Line
	1550 2250 1700 2250
Wire Wire Line
	1700 2250 2100 2250
$Comp
L power:VCC #PWR0108
U 1 1 5FFD83AA
P 4700 2700
F 0 "#PWR0108" H 4700 2550 50  0001 C CNN
F 1 "VCC" H 4717 2873 50  0000 C CNN
F 2 "" H 4700 2700 50  0001 C CNN
F 3 "" H 4700 2700 50  0001 C CNN
	1    4700 2700
	1    0    0    -1  
$EndComp
Text Notes 10600 7650 0    50   ~ 0
V1.2
$EndSCHEMATC
